…
| 함수명      | 내용                             |
|-------------|----------------------------------|
| `filter()`    | 행에 조건을 줘서 부분을 추출 |
| `select()`    | 필요한 컬럼만 선택       |
| `mutate()`    | 새로운 컬럼을 계산       |
| `arrange()`   | 조건에 따라 재정렬       |
| `summarise()` | `group_by()`와 함께 사용해 요약값을 계산 |

```r
> cpw_df
#  A tibble: 26,288 x 3
#    area         year   cpw
#    <fct>       <int> <dbl>
#  1 Abkhazia     2010 NA   
#  2 Afghanistan  1991  7.7 
#  3 Afghanistan  1992  7.72
#  4 Afghanistan  1993  7.76
#  5 Afghanistan  1994  7.80
#  6 Afghanistan  1995  7.83
#  7 Afghanistan  1996  7.86
#  8 Afghanistan  1997  7.87
#  9 Afghanistan  1998  7.85
# 10 Afghanistan  1999  7.81
# ... with 26,278 more rows

# filter(data, 필터링 할 조건들)
> filter(cpw_df, year == 2010, cpw >= 4)
# A tibble: 47 x 3
#    area                  year   cpw
#    <fct>                <int> <dbl>
#  1 Afghanistan           2010  5.66
#  2 Angola                2010  6.22
#  3 Benin                 2010  5.10
#  4 Burkina Faso          2010  5.87
#  5 Burundi               2010  6.30
#  6 Cameroon              2010  5.02
#  7 Central African Rep.  2010  4.63
#  8 Chad                  2010  6.60
#  9 Comoros               2010  4.92
# 10 Congo, Dem. Rep.      2010  6.25
# ... with 37 more rows

# arrange(data, 재정렬 할 조건)
> arrange(cpw_df, desc(cpw))
# A tibble: 26,288 x 3
#    area         year   cpw
#    <fct>       <int> <dbl>
#  1 Yemen, Rep.  1991  8.50
#  2 Yemen, Rep.  1992  8.31
#  3 Yemen, Rep.  1993  8.09
#  4 Afghanistan  1997  7.87
#  5 Afghanistan  1996  7.86
#  6 Afghanistan  1998  7.85
#  7 Yemen, Rep.  1994  7.84
#  8 Afghanistan  1995  7.83
#  9 Afghanistan  1999  7.81
# 10 Afghanistan  1994  7.80
# ... with 26,278 more rows

# select(data, 선택할 컬럼명 나열 또는 벡터)
> select(cpw_df, area, cpw)
# A tibble: 26,288 x 2
#    area          cpw
#    <fct>       <dbl>
#  1 Abkhazia    NA   
#  2 Afghanistan  7.7 
#  3 Afghanistan  7.72
#  4 Afghanistan  7.76
#  5 Afghanistan  7.80
#  6 Afghanistan  7.83
#  7 Afghanistan  7.86
#  8 Afghanistan  7.87
#  9 Afghanistan  7.85
# 10 Afghanistan  7.81
# ... with 26,278 more rows

# mutate(data, 추가될 컬럼 = 계산식)
# 각 행에 대한 계산 결과를 하나의 새로운 변수로 만들어줌
> mutate(
+   cpw_df_copy,
+   new_var = round(cpw)
+ )
# A tibble: 26,288 x 4
#    area         year   cpw new_var
#    <fct>       <int> <dbl>   <dbl>
#  1 Abkhazia     2010 NA         NA
#  2 Afghanistan  1991  7.7        8
#  3 Afghanistan  1992  7.72       8
#  4 Afghanistan  1993  7.76       8
#  5 Afghanistan  1994  7.80       8
#  6 Afghanistan  1995  7.83       8
#  7 Afghanistan  1996  7.86       8
#  8 Afghanistan  1997  7.87       8
#  9 Afghanistan  1998  7.85       8
# 10 Afghanistan  1999  7.81       8
# ... with 26,278 more rows

# summarise(data, 변수명 = 계산방법)
# summarise는 일정 조건에 해당하는 계산 수행
# group_by와 같이 사용되는 경우가 많음.
> arrange(                                 # 결과를 avg_cpw가 높은 순으로 재정렬
+   summarise(                             # 결측치(NA)가 있는 행을 제거 후
+     group_by(drop_na(cpw_df), area),     # area를 기준으로 group_by하여
+     avg_cpw = mean(cpw, na.rm = TRUE)    # 평균 cpw를 산출하여 summarise
+   ),
+   desc(avg_cpw)
+ )
# A tibble: 202 x 2
#   area             avg_cpw
#   <fct>              <dbl>
#  1 Niger               5.28
#  2 Mali                4.62
#  3 Somalia             4.37
#  4 Zambia              4.34
#  5 Burundi             4.20
#  6 Nigeria             4.14
#  7 Chad                4.11
#  8 Congo, Dem. Rep.    3.98
#  9 Uganda              3.96
# 10 Malawi              3.94
# ... with 192 more rows
```
…
